tb/generated/tb.vcd
$date
	Wed Feb 21 21:28:29 2024
$end
$version
	Icarus Verilog
$end
$timescale
	1ns
$end
$scope module tb $end
$var wire 1 ! x3 $end
$var wire 1 " x27 $end
$var wire 1 # x26 $end
$var reg 1 $ clk $end
$var reg 1 % rest $end
$scope module u_cpu_top $end
$var wire 1 $ clk $end
$var wire 1 % rest $end
$var wire 32 & rom2if_ins_o [31:0] $end
$var wire 32 ' if2rom_ins_o [31:0] $end
$scope module u_cpu_core $end
$var wire 1 $ clk $end
$var wire 1 % rest $end
$var wire 32 ( rom2if_ins_i [31:0] $end
$var wire 32 ) regs2id_rs2_data_o [31:0] $end
$var wire 32 * regs2id_rs1_data_o [31:0] $end
$var wire 32 + pc2if_addr_o [31:0] $end
$var wire 32 , ifid2id_ins_o [31:0] $end
$var wire 32 - ifid2id_addr_o [31:0] $end
$var wire 32 . if2rom_ins_o [31:0] $end
$var wire 32 / if2ifid_ins_o [31:0] $end
$var wire 32 0 if2ifid_addr_o [31:0] $end
$var wire 32 1 idex2ex_source2_o [31:0] $end
$var wire 32 2 idex2ex_source1_o [31:0] $end
$var wire 5 3 idex2ex_rs2_o [4:0] $end
$var wire 5 4 idex2ex_rs1_o [4:0] $end
$var wire 5 5 idex2ex_rd_o [4:0] $end
$var wire 5 6 idex2ex_rd_addr_o [4:0] $end
$var wire 7 7 idex2ex_opcode_o [6:0] $end
$var wire 32 8 idex2ex_imm_uj_o [31:0] $end
$var wire 32 9 idex2ex_imm_sb_o [31:0] $end
$var wire 32 : idex2ex_imm_i_o [31:0] $end
$var wire 32 ; idex2ex_id_ins_o [31:0] $end
$var wire 3 < idex2ex_funct3_o [2:0] $end
$var wire 32 = idex2ex_addr_o [31:0] $end
$var wire 5 > id2regs_rs2_addr_o [4:0] $end
$var wire 5 ? id2regs_rs1_addr_o [4:0] $end
$var wire 32 @ id2idex_source2_o [31:0] $end
$var wire 32 A id2idex_source1_o [31:0] $end
$var wire 5 B id2idex_rs2_o [4:0] $end
$var wire 5 C id2idex_rs1_o [4:0] $end
$var wire 5 D id2idex_rd_o [4:0] $end
$var wire 5 E id2idex_rd_addr_o [4:0] $end
$var wire 7 F id2idex_opcode_o [6:0] $end
$var wire 32 G id2idex_ins_o [31:0] $end
$var wire 32 H id2idex_imm_uj_o [31:0] $end
$var wire 32 I id2idex_imm_sb_o [31:0] $end
$var wire 32 J id2idex_imm_i_o [31:0] $end
$var wire 3 K id2idex_funct3_o [2:0] $end
$var wire 32 L id2idex_addr_o [31:0] $end
$var wire 32 M ex2regs_rd_data_o [31:0] $end
$var wire 5 N ex2regs_rd_addr_o [4:0] $end
$var wire 32 O ex2pc_jump_addr_o [31:0] $end
$var wire 1 P ex2cu_jump_en_o $end
$var wire 1 Q cu2pc_jump_en_o $end
$var wire 1 R cu2_refresh_flag_o $end
$scope module u_CU $end
$var wire 1 P ex2cu_jump_en_i $end
$var reg 1 R cu2_refresh_flag_o $end
$var reg 1 Q cu2pc_jump_en_o $end
$upscope $end
$scope module u_EXU $end
$var wire 32 S idex2ex_source2_i [31:0] $end
$var wire 32 T idex2ex_source1_i [31:0] $end
$var wire 5 U idex2ex_rs2_i [4:0] $end
$var wire 5 V idex2ex_rs1_i [4:0] $end
$var wire 5 W idex2ex_rd_i [4:0] $end
$var wire 5 X idex2ex_rd_addr_i [4:0] $end
$var wire 7 Y idex2ex_opcode_i [6:0] $end
$var wire 32 Z idex2ex_imm_uj_i [31:0] $end
$var wire 32 [ idex2ex_imm_sb_i [31:0] $end
$var wire 32 \ idex2ex_imm_i_i [31:0] $end
$var wire 32 ] idex2ex_id_ins_i [31:0] $end
$var wire 32 ^ idex2ex_id_addr_i [31:0] $end
$var wire 3 _ idex2ex_funct3_i [2:0] $end
$var wire 32 ` ALU_xor [31:0] $end
$var wire 32 a ALU_sub [31:0] $end
$var wire 32 b ALU_stlu [31:0] $end
$var wire 32 c ALU_stl [31:0] $end
$var wire 32 d ALU_srl [31:0] $end
$var wire 32 e ALU_sll [31:0] $end
$var wire 32 f ALU_or [31:0] $end
$var wire 1 g ALU_beq $end
$var wire 32 h ALU_and [31:0] $end
$var wire 32 i ALU_add [31:0] $end
$var reg 1 P ex2cu_jump_en_o $end
$var reg 32 j ex2pc_jump_addr_o [31:0] $end
$var reg 5 k ex2regs_rd_addr_o [4:0] $end
$var reg 32 l ex2regs_rd_data_o [31:0] $end
$scope module u_ALU $end
$var wire 32 m ALU_and [31:0] $end
$var wire 32 n ALU_or [31:0] $end
$var wire 32 o ALU_xor [31:0] $end
$var wire 32 p ALU_sub [31:0] $end
$var wire 32 q ALU_stlu [31:0] $end
$var wire 32 r ALU_stl [31:0] $end
$var wire 32 s ALU_srl [31:0] $end
$var wire 32 t ALU_source2 [31:0] $end
$var wire 32 u ALU_source1 [31:0] $end
$var wire 32 v ALU_sll [31:0] $end
$var wire 1 g ALU_beq $end
$var wire 32 w ALU_add [31:0] $end
$upscope $end
$upscope $end
$scope module u_IDEXU $end
$var wire 1 $ clk $end
$var wire 1 R cu2_refresh_flag_i $end
$var wire 1 % rest $end
$var wire 1 x refresh_flag $end
$var wire 32 y idex2ex_source2_o [31:0] $end
$var wire 32 z idex2ex_source1_o [31:0] $end
$var wire 5 { idex2ex_rs2_o [4:0] $end
$var wire 5 | idex2ex_rs1_o [4:0] $end
$var wire 5 } idex2ex_rd_o [4:0] $end
$var wire 5 ~ idex2ex_rd_addr_o [4:0] $end
$var wire 7 !" idex2ex_opcode_o [6:0] $end
$var wire 32 "" idex2ex_imm_uj_o [31:0] $end
$var wire 32 #" idex2ex_imm_sb_o [31:0] $end
$var wire 32 $" idex2ex_imm_i_o [31:0] $end
$var wire 32 %" idex2ex_id_ins_o [31:0] $end
$var wire 3 &" idex2ex_funct3_o [2:0] $end
$var wire 32 '" idex2ex_addr_o [31:0] $end
$var wire 32 (" id2idex_source2_i [31:0] $end
$var wire 32 )" id2idex_source1_i [31:0] $end
$var wire 5 *" id2idex_rs2_i [4:0] $end
$var wire 5 +" id2idex_rs1_i [4:0] $end
$var wire 5 ," id2idex_rd_i [4:0] $end
$var wire 5 -" id2idex_rd_addr_i [4:0] $end
$var wire 7 ." id2idex_opcode_i [6:0] $end
$var wire 32 /" id2idex_ins_i [31:0] $end
$var wire 32 0" id2idex_imm_uj_i [31:0] $end
$var wire 32 1" id2idex_imm_sb_i [31:0] $end
$var wire 32 2" id2idex_imm_i_i [31:0] $end
$var wire 3 3" id2idex_funct3_i [2:0] $end
$var wire 32 4" id2idex_addr_i [31:0] $end
$scope module u_DFF_1 $end
$var wire 1 $ clk $end
$var wire 32 5" default_rest [31:0] $end
$var wire 1 x dff_refresh_flag_i $end
$var wire 1 % rest $end
$var wire 32 6" D [31:0] $end
$var parameter 32 7" WD $end
$var reg 32 8" Q [31:0] $end
$upscope $end
$scope module u_DFF_10 $end
$var wire 1 $ clk $end
$var wire 3 9" default_rest [2:0] $end
$var wire 1 x dff_refresh_flag_i $end
$var wire 1 % rest $end
$var wire 3 :" D [2:0] $end
$var parameter 32 ;" WD $end
$var reg 3 <" Q [2:0] $end
$upscope $end
$scope module u_DFF_11 $end
$var wire 1 $ clk $end
$var wire 32 =" default_rest [31:0] $end
$var wire 1 x dff_refresh_flag_i $end
$var wire 1 % rest $end
$var wire 32 >" D [31:0] $end
$var parameter 32 ?" WD $end
$var reg 32 @" Q [31:0] $end
$upscope $end
$scope module u_DFF_12 $end
$var wire 1 $ clk $end
$var wire 32 A" default_rest [31:0] $end
$var wire 1 x dff_refresh_flag_i $end
$var wire 1 % rest $end
$var wire 32 B" D [31:0] $end
$var parameter 32 C" WD $end
$var reg 32 D" Q [31:0] $end
$upscope $end
$scope module u_DFF_13 $end
$var wire 1 $ clk $end
$var wire 32 E" default_rest [31:0] $end
$var wire 1 x dff_refresh_flag_i $end
$var wire 1 % rest $end
$var wire 32 F" D [31:0] $end
$var parameter 32 G" WD $end
$var reg 32 H" Q [31:0] $end
$upscope $end
$scope module u_DFF_2 $end
$var wire 1 $ clk $end
$var wire 32 I" default_rest [31:0] $end
$var wire 1 x dff_refresh_flag_i $end
$var wire 1 % rest $end
$var wire 32 J" D [31:0] $end
$var parameter 32 K" WD $end
$var reg 32 L" Q [31:0] $end
$upscope $end
$scope module u_DFF_3 $end
$var wire 1 $ clk $end
$var wire 32 M" default_rest [31:0] $end
$var wire 1 x dff_refresh_flag_i $end
$var wire 1 % rest $end
$var wire 32 N" D [31:0] $end
$var parameter 32 O" WD $end
$var reg 32 P" Q [31:0] $end
$upscope $end
$scope module u_DFF_4 $end
$var wire 1 $ clk $end
$var wire 32 Q" default_rest [31:0] $end
$var wire 1 x dff_refresh_flag_i $end
$var wire 1 % rest $end
$var wire 32 R" D [31:0] $end
$var parameter 32 S" WD $end
$var reg 32 T" Q [31:0] $end
$upscope $end
$scope module u_DFF_5 $end
$var wire 1 $ clk $end
$var wire 5 U" default_rest [4:0] $end
$var wire 1 x dff_refresh_flag_i $end
$var wire 1 % rest $end
$var wire 5 V" D [4:0] $end
$var parameter 32 W" WD $end
$var reg 5 X" Q [4:0] $end
$upscope $end
$scope module u_DFF_6 $end
$var wire 1 $ clk $end
$var wire 7 Y" default_rest [6:0] $end
$var wire 1 x dff_refresh_flag_i $end
$var wire 1 % rest $end
$var wire 7 Z" D [6:0] $end
$var parameter 32 [" WD $end
$var reg 7 \" Q [6:0] $end
$upscope $end
$scope module u_DFF_7 $end
$var wire 1 $ clk $end
$var wire 5 ]" default_rest [4:0] $end
$var wire 1 x dff_refresh_flag_i $end
$var wire 1 % rest $end
$var wire 5 ^" D [4:0] $end
$var parameter 32 _" WD $end
$var reg 5 `" Q [4:0] $end
$upscope $end
$scope module u_DFF_8 $end
$var wire 1 $ clk $end
$var wire 5 a" default_rest [4:0] $end
$var wire 1 x dff_refresh_flag_i $end
$var wire 1 % rest $end
$var wire 5 b" D [4:0] $end
$var parameter 32 c" WD $end
$var reg 5 d" Q [4:0] $end
$upscope $end
$scope module u_DFF_9 $end
$var wire 1 $ clk $end
$var wire 5 e" default_rest [4:0] $end
$var wire 1 x dff_refresh_flag_i $end
$var wire 1 % rest $end
$var wire 5 f" D [4:0] $end
$var parameter 32 g" WD $end
$var reg 5 h" Q [4:0] $end
$upscope $end
$upscope $end
$scope module u_IDU $end
$var wire 32 i" regs2id_rs2_data_i [31:0] $end
$var wire 32 j" regs2id_rs1_data_i [31:0] $end
$var wire 21 k" imm_uj [20:0] $end
$var wire 13 l" imm_sb [12:0] $end
$var wire 12 m" imm_i [11:0] $end
$var wire 32 n" ifid2id_ins_i [31:0] $end
$var wire 32 o" ifid2id_addr_i [31:0] $end
$var wire 5 p" id2idex_rs2_o [4:0] $end
$var wire 5 q" id2idex_rs1_o [4:0] $end
$var wire 5 r" id2idex_rd_o [4:0] $end
$var wire 7 s" id2idex_opcode_o [6:0] $end
$var wire 3 t" id2idex_funct3_o [2:0] $end
$var reg 32 u" id2idex_addr_o [31:0] $end
$var reg 32 v" id2idex_imm_i_o [31:0] $end
$var reg 32 w" id2idex_imm_sb_o [31:0] $end
$var reg 32 x" id2idex_imm_uj_o [31:0] $end
$var reg 32 y" id2idex_ins_o [31:0] $end
$var reg 5 z" id2idex_rd_addr_o [4:0] $end
$var reg 32 {" id2idex_source1_o [31:0] $end
$var reg 32 |" id2idex_source2_o [31:0] $end
$var reg 5 }" id2regs_rs1_addr_o [4:0] $end
$var reg 5 ~" id2regs_rs2_addr_o [4:0] $end
$upscope $end
$scope module u_IFIDU $end
$var wire 1 $ clk $end
$var wire 1 R cu2_refresh_flag_i $end
$var wire 1 % rest $end
$var wire 1 !# refresh_flag $end
$var wire 32 "# ifid2id_ins_o [31:0] $end
$var wire 32 ## ifid2id_addr_o [31:0] $end
$var wire 32 $# if2ifid_ins_i [31:0] $end
$var wire 32 %# if2ifid_addr_i [31:0] $end
$scope module inst_1 $end
$var wire 1 $ clk $end
$var wire 32 &# default_rest [31:0] $end
$var wire 1 !# dff_refresh_flag_i $end
$var wire 1 % rest $end
$var wire 32 '# D [31:0] $end
$var parameter 32 (# WD $end
$var reg 32 )# Q [31:0] $end
$upscope $end
$scope module inst_2 $end
$var wire 1 $ clk $end
$var wire 32 *# default_rest [31:0] $end
$var wire 1 !# dff_refresh_flag_i $end
$var wire 1 % rest $end
$var wire 32 +# D [31:0] $end
$var parameter 32 ,# WD $end
$var reg 32 -# Q [31:0] $end
$upscope $end
$upscope $end
$scope module u_IFU $end
$var wire 32 .# if2ifid_addr_o [31:0] $end
$var wire 32 /# if2ifid_ins_o [31:0] $end
$var wire 32 0# if2rom_ins_o [31:0] $end
$var wire 32 1# rom2if_ins_i [31:0] $end
$var wire 32 2# pc2if_addr_i [31:0] $end
$upscope $end
$scope module u_pc_reg $end
$var wire 1 $ clk $end
$var wire 1 Q cu2pc_jump_en_i $end
$var wire 32 3# ex2pc_jump_addr_i [31:0] $end
$var wire 1 % rest $end
$var reg 32 4# pc2if_addr_o [31:0] $end
$upscope $end
$scope module u_regs $end
$var wire 1 $ clk $end
$var wire 5 5# ex2regs_rd_addr_i [4:0] $end
$var wire 32 6# ex2regs_rd_data_i [31:0] $end
$var wire 5 7# id2regs_rs1_addr_i [4:0] $end
$var wire 5 8# id2regs_rs2_addr_i [4:0] $end
$var wire 1 % rest $end
$var reg 32 9# regs2id_rs1_data_o [31:0] $end
$var reg 32 :# regs2id_rs2_data_o [31:0] $end
$var integer 32 ;# i [31:0] $end
$upscope $end
$upscope $end
$scope module u_ins_rom $end
$var wire 32 <# if2rom_ins_i [31:0] $end
$var wire 32 =# rom2if_ins_o [31:0] $end
$upscope $end
$upscope $end
$upscope $end
$enddefinitions $end
$comment Show the parameter values. $end
$dumpall
b100000 ,#
b100000 (#
b101 g"
b101 c"
b101 _"
b111 ["
b101 W"
b100000 S"
b100000 O"
b100000 K"
b100000 G"
b100000 C"
b100000 ?"
b11 ;"
b100000 7"
$end
#0
$dumpvars
bx =#
bx <#
bx ;#
b0 :#
b0 9#
bx 8#
bx 7#
b0 6#
b0 5#
bx 4#
b0 3#
bx 2#
bx 1#
bx 0#
bx /#
bx .#
bx -#
bx +#
b0 *#
bx )#
bx '#
b0 &#
bx %#
bx $#
bx ##
bx "#
0!#
bx ~"
bx }"
bx |"
bx {"
bx z"
bx y"
bx x"
bx w"
bx v"
bx u"
bx t"
bx s"
bx r"
bx q"
bx p"
bx o"
bx n"
bx m"
bx0 l"
bx0 k"
b0 j"
b0 i"
bx h"
bx f"
b0 e"
bx d"
bx b"
b0 a"
bx `"
bx ^"
b0 ]"
bx \"
bx Z"
b0 Y"
bx X"
bx V"
b0 U"
bx T"
bx R"
b0 Q"
bx P"
bx N"
b0 M"
bx L"
bx J"
b0 I"
bx H"
bx F"
b0 E"
bx D"
bx B"
b0 A"
bx @"
bx >"
b0 ="
bx <"
bx :"
b0 9"
bx 8"
bx 6"
b0 5"
bx 4"
bx 3"
bx 2"
bx 1"
bx 0"
bx /"
bx ."
bx -"
bx ,"
bx +"
bx *"
bx )"
bx ("
bx '"
bx &"
bx %"
bx $"
bx #"
bx ""
bx !"
bx ~
bx }
bx |
bx {
bx z
bx y
0x
bx w
bx v
bx u
bx t
bx s
b0x r
b0x q
bx p
bx o
bx n
bx m
b0 l
b0 k
b0 j
bx i
bx h
xg
bx f
bx e
bx d
b0x c
b0x b
bx a
bx `
bx _
bx ^
bx ]
bx \
bx [
bx Z
bx Y
bx X
bx W
bx V
bx U
bx T
bx S
0R
0Q
0P
b0 O
b0 N
b0 M
bx L
bx K
bx J
bx I
bx H
bx G
bx F
bx E
bx D
bx C
bx B
bx A
bx @
bx ?
bx >
bx =
bx <
bx ;
bx :
bx 9
bx 8
bx 7
bx 6
bx 5
bx 4
bx 3
bx 2
bx 1
bx 0
bx /
bx .
bx -
bx ,
bx +
b0 *
b0 )
bx (
bx '
bx &
0%
0$
x#
x"
x!
$end
#10
b101100000000000110010011 /
b101100000000000110010011 $#
b101100000000000110010011 +#
b101100000000000110010011 /#
b101100000000000110010011 &
b101100000000000110010011 (
b101100000000000110010011 1#
b101100000000000110010011 =#
b0 k"
b0 l"
b0 m"
b0 B
b0 *"
b0 f"
b0 p"
b0 C
b0 +"
b0 b"
b0 q"
b0 K
b0 3"
b0 :"
b0 t"
b0 D
b0 ,"
b0 ^"
b0 r"
b0 F
b0 ."
b0 Z"
b0 s"
b0 L
b0 4"
b0 R"
b0 u"
b0 G
b0 /"
b0 N"
b0 y"
1g
b0 b
b0 q
b0 c
b0 r
b0 d
b0 s
b0 e
b0 v
b0 `
b0 o
b0 f
b0 n
b0 h
b0 m
0"
0#
0!
bx )
bx i"
bx :#
bx *
bx j"
bx 9#
b0 0
b0 %#
b0 '#
b0 .#
b0 '
b0 .
b0 0#
b0 <#
b0 +
b0 2#
b0 4#
b0 -
b0 o"
b0 ##
b0 )#
b0 ,
b0 n"
b0 "#
b0 -#
b0 a
b0 p
b0 i
b0 w
b0 2
b0 T
b0 u
b0 z
b0 8"
b0 1
b0 S
b0 t
b0 y
b0 L"
b0 ;
b0 ]
b0 %"
b0 P"
b0 =
b0 ^
b0 '"
b0 T"
b0 6
b0 X
b0 ~
b0 X"
b0 7
b0 Y
b0 !"
b0 \"
b0 5
b0 W
b0 }
b0 `"
b0 4
b0 V
b0 |
b0 d"
b0 3
b0 U
b0 {
b0 h"
b0 <
b0 _
b0 &"
b0 <"
b0 :
b0 \
b0 $"
b0 @"
b0 9
b0 [
b0 #"
b0 D"
b0 8
b0 Z
b0 ""
b0 H"
1%
b100000 ;#
1$
#20
0$
#30
b0 A
b0 )"
b0 6"
b0 {"
b0 )
b0 i"
b0 :#
b0 *
b0 j"
b0 9#
b11 E
b11 -"
b11 V"
b11 z"
b1011 @
b1011 ("
b1011 J"
b1011 |"
b0 >
b0 ~"
b0 8#
b0 ?
b0 }"
b0 7#
xg
b0x b
b0x q
b0x c
b0x r
bx `
bx o
bx f
bx n
bx h
bx m
b100000001010 k"
b100000000010 l"
b1011 m"
b1011 B
b1011 *"
b1011 f"
b1011 p"
b11 D
b11 ,"
b11 ^"
b11 r"
b10011 F
b10011 ."
b10011 Z"
b10011 s"
b101100000000000110010011 G
b101100000000000110010011 /"
b101100000000000110010011 N"
b101100000000000110010011 y"
b101100000000001000010011 /
b101100000000001000010011 $#
b101100000000001000010011 +#
b101100000000001000010011 /#
b101100000000001000010011 &
b101100000000001000010011 (
b101100000000001000010011 1#
b101100000000001000010011 =#
bx 8
bx Z
bx ""
bx H"
bx 9
bx [
bx #"
bx D"
bx :
bx \
bx $"
bx @"
bx 6
bx X
bx ~
bx X"
bx 1
bx S
bx t
bx y
bx L"
bx d
bx s
bx e
bx v
bx a
bx p
bx i
bx w
bx 2
bx T
bx u
bx z
bx 8"
b101100000000000110010011 ,
b101100000000000110010011 n"
b101100000000000110010011 "#
b101100000000000110010011 -#
b100 0
b100 %#
b100 '#
b100 .#
b100 '
b100 .
b100 0#
b100 <#
b100 +
b100 2#
b100 4#
1$
#40
0$
#50
b100 E
b100 -"
b100 V"
b100 z"
b1100100000110001100011 /
b1100100000110001100011 $#
b1100100000110001100011 +#
b1100100000110001100011 /#
b1100100000110001100011 &
b1100100000110001100011 (
b1100100000110001100011 1#
b1100100000110001100011 =#
b100 l"
b100 D
b100 ,"
b100 ^"
b100 r"
b100 L
b100 4"
b100 R"
b100 u"
b101100000000001000010011 G
b101100000000001000010011 /"
b101100000000001000010011 N"
b101100000000001000010011 y"
0g
b1 b
b1 q
b1 c
b1 r
b0 d
b0 s
b0 e
b0 v
b1011 `
b1011 o
b1011 f
b1011 n
b0 h
b0 m
b1011 M
b1011 l
b1011 6#
b11 N
b11 k
b11 5#
b1000 0
b1000 %#
b1000 '#
b1000 .#
b1000 '
b1000 .
b1000 0#
b1000 <#
b1000 +
b1000 2#
b1000 4#
b100 -
b100 o"
b100 ##
b100 )#
b101100000000001000010011 ,
b101100000000001000010011 n"
b101100000000001000010011 "#
b101100000000001000010011 -#
b11111111111111111111111111110101 a
b11111111111111111111111111110101 p
b1011 i
b1011 w
b0 2
b0 T
b0 u
b0 z
b0 8"
b1011 1
b1011 S
b1011 t
b1011 y
b1011 L"
b101100000000000110010011 ;
b101100000000000110010011 ]
b101100000000000110010011 %"
b101100000000000110010011 P"
b11 6
b11 X
b11 ~
b11 X"
b10011 7
b10011 Y
b10011 !"
b10011 \"
b11 5
b11 W
b11 }
b11 `"
b1011 3
b1011 U
b1011 {
b1011 h"
1$
#60
0$
#70
b1011 A
b1011 )"
b1011 6"
b1011 {"
b1011 )
b1011 i"
b1011 :#
b1011 *
b1011 j"
b1011 9#
b0 E
b0 -"
b0 V"
b0 z"
b11000 I
b11000 1"
b11000 B"
b11000 w"
b1011 @
b1011 ("
b1011 J"
b1011 |"
b11 >
b11 ~"
b11 8#
b100 ?
b100 }"
b100 7#
1!
b100 N
b100 k
b100 5#
b100000100000000010 k"
b11000 l"
b11 m"
b11 B
b11 *"
b11 f"
b11 p"
b100 C
b100 +"
b100 b"
b100 q"
b11000 D
b11000 ,"
b11000 ^"
b11000 r"
b1100011 F
b1100011 ."
b1100011 Z"
b1100011 s"
b1000 L
b1000 4"
b1000 R"
b1000 u"
b1100100000110001100011 G
b1100100000110001100011 /"
b1100100000110001100011 N"
b1100100000110001100011 y"
bx /
bx $#
bx +#
bx /#
bx &
bx (
bx 1#
bx =#
b100 5
b100 W
b100 }
b100 `"
b100 6
b100 X
b100 ~
b100 X"
b100 =
b100 ^
b100 '"
b100 T"
b101100000000001000010011 ;
b101100000000001000010011 ]
b101100000000001000010011 %"
b101100000000001000010011 P"
b1100100000110001100011 ,
b1100100000110001100011 n"
b1100100000110001100011 "#
b1100100000110001100011 -#
b1000 -
b1000 o"
b1000 ##
b1000 )#
b1100 0
b1100 %#
b1100 '#
b1100 .#
b1100 '
b1100 .
b1100 0#
b1100 <#
b1100 +
b1100 2#
b1100 4#
1$
#80
0$
#90
1x
1!#
1R
1Q
b100000 O
b100000 j
b100000 3#
1P
bx0 k"
bx0 l"
bx m"
bx B
bx *"
bx f"
bx p"
bx C
bx +"
bx b"
bx q"
bx K
bx 3"
bx :"
bx t"
bx D
bx ,"
bx ^"
bx r"
bx F
bx ."
bx Z"
bx s"
b1100 L
b1100 4"
b1100 R"
b1100 u"
bx G
bx /"
bx N"
bx y"
1g
b0 b
b0 q
b0 c
b0 r
b0 `
b0 o
b1011 h
b1011 m
b0 M
b0 l
b0 6#
b0 N
b0 k
b0 5#
b10000 0
b10000 %#
b10000 '#
b10000 .#
b10000 '
b10000 .
b10000 0#
b10000 <#
b10000 +
b10000 2#
b10000 4#
b1100 -
b1100 o"
b1100 ##
b1100 )#
bx ,
bx n"
bx "#
bx -#
b101100000000000 e
b101100000000000 v
b0 a
b0 p
b10110 i
b10110 w
b1011 2
b1011 T
b1011 u
b1011 z
b1011 8"
b1100100000110001100011 ;
b1100100000110001100011 ]
b1100100000110001100011 %"
b1100100000110001100011 P"
b1000 =
b1000 ^
b1000 '"
b1000 T"
b0 6
b0 X
b0 ~
b0 X"
b1100011 7
b1100011 Y
b1100011 !"
b1100011 \"
b11000 5
b11000 W
b11000 }
b11000 `"
b100 4
b100 V
b100 |
b100 d"
b11 3
b11 U
b11 {
b11 h"
b11000 9
b11000 [
b11000 #"
b11000 D"
1$
#100
0$
#110
0x
0!#
0Q
0R
b0 O
b0 j
b0 3#
0P
b0 f
b0 n
b0 h
b0 m
b0 k"
b0 l"
b0 m"
b0 B
b0 *"
b0 f"
b0 p"
b0 C
b0 +"
b0 b"
b0 q"
b0 K
b0 3"
b0 :"
b0 t"
b0 D
b0 ,"
b0 ^"
b0 r"
b0 F
b0 ."
b0 Z"
b0 s"
b0 L
b0 4"
b0 R"
b0 u"
b0 G
b0 /"
b0 N"
b0 y"
b0 8
b0 Z
b0 ""
b0 H"
b0 9
b0 [
b0 #"
b0 D"
b0 :
b0 \
b0 $"
b0 @"
b0 3
b0 U
b0 {
b0 h"
b0 4
b0 V
b0 |
b0 d"
b0 5
b0 W
b0 }
b0 `"
b0 7
b0 Y
b0 !"
b0 \"
b0 =
b0 ^
b0 '"
b0 T"
b0 ;
b0 ]
b0 %"
b0 P"
b0 1
b0 S
b0 t
b0 y
b0 L"
b0 e
b0 v
b0 a
b0 p
b0 i
b0 w
b0 2
b0 T
b0 u
b0 z
b0 8"
b0 ,
b0 n"
b0 "#
b0 -#
b0 -
b0 o"
b0 ##
b0 )#
b100000 0
b100000 %#
b100000 '#
b100000 .#
b100000 '
b100000 .
b100000 0#
b100000 <#
b100000 +
b100000 2#
b100000 4#
1$
#120
0$
#130
bx0 k"
bx0 l"
bx m"
bx B
bx *"
bx f"
bx p"
bx C
bx +"
bx b"
bx q"
bx K
bx 3"
bx :"
bx t"
bx D
bx ,"
bx ^"
bx r"
bx F
bx ."
bx Z"
bx s"
b100000 L
b100000 4"
b100000 R"
b100000 u"
bx G
bx /"
bx N"
bx y"
b1011 f
b1011 n
b1011 h
b1011 m
b100100 0
b100100 %#
b100100 '#
b100100 .#
b100100 '
b100100 .
b100100 0#
b100100 <#
b100100 +
b100100 2#
b100100 4#
b100000 -
b100000 o"
b100000 ##
b100000 )#
bx ,
bx n"
bx "#
bx -#
b0 d
b0 s
b101100000000000 e
b101100000000000 v
b1011 2
b1011 T
b1011 u
b1011 z
b1011 8"
b0 a
b0 p
b10110 i
b10110 w
b1011 1
b1011 S
b1011 t
b1011 y
b1011 L"
bx :
bx \
bx $"
bx @"
b11000 9
b11000 [
b11000 #"
b11000 D"
bx 8
bx Z
bx ""
bx H"
1$
#140
0$
#150
b100100 L
b100100 4"
b100100 R"
b100100 u"
bx <
bx _
bx &"
bx <"
bx 3
bx U
bx {
bx h"
bx 4
bx V
bx |
bx d"
bx 5
bx W
bx }
bx `"
bx 7
bx Y
bx !"
bx \"
b100000 =
b100000 ^
b100000 '"
b100000 T"
bx ;
bx ]
bx %"
bx P"
b100100 -
b100100 o"
b100100 ##
b100100 )#
b101000 0
b101000 %#
b101000 '#
b101000 .#
b101000 '
b101000 .
b101000 0#
b101000 <#
b101000 +
b101000 2#
b101000 4#
1$
#160
0$
#170
b101000 L
b101000 4"
b101000 R"
b101000 u"
b101100 0
b101100 %#
b101100 '#
b101100 .#
b101100 '
b101100 .
b101100 0#
b101100 <#
b101100 +
b101100 2#
b101100 4#
b101000 -
b101000 o"
b101000 ##
b101000 )#
b100100 =
b100100 ^
b100100 '"
b100100 T"
1$
#180
0$
#190
b101100 L
b101100 4"
b101100 R"
b101100 u"
b101000 =
b101000 ^
b101000 '"
b101000 T"
b101100 -
b101100 o"
b101100 ##
b101100 )#
b110000 0
b110000 %#
b110000 '#
b110000 .#
b110000 '
b110000 .
b110000 0#
b110000 <#
b110000 +
b110000 2#
b110000 4#
1$
#200
0$
#210
b110000 L
b110000 4"
b110000 R"
b110000 u"
b110100 0
b110100 %#
b110100 '#
b110100 .#
b110100 '
b110100 .
b110100 0#
b110100 <#
b110100 +
b110100 2#
b110100 4#
b110000 -
b110000 o"
b110000 ##
b110000 )#
b101100 =
b101100 ^
b101100 '"
b101100 T"
1$
#220
0$
#230
b110100 L
b110100 4"
b110100 R"
b110100 u"
b110000 =
b110000 ^
b110000 '"
b110000 T"
b110100 -
b110100 o"
b110100 ##
b110100 )#
b111000 0
b111000 %#
b111000 '#
b111000 .#
b111000 '
b111000 .
b111000 0#
b111000 <#
b111000 +
b111000 2#
b111000 4#
1$
#240
0$
#250
b111000 L
b111000 4"
b111000 R"
b111000 u"
b111100 0
b111100 %#
b111100 '#
b111100 .#
b111100 '
b111100 .
b111100 0#
b111100 <#
b111100 +
b111100 2#
b111100 4#
b111000 -
b111000 o"
b111000 ##
b111000 )#
b110100 =
b110100 ^
b110100 '"
b110100 T"
1$
#260
0$
#270
b111100 L
b111100 4"
b111100 R"
b111100 u"
b111000 =
b111000 ^
b111000 '"
b111000 T"
b111100 -
b111100 o"
b111100 ##
b111100 )#
b1000000 0
b1000000 %#
b1000000 '#
b1000000 .#
b1000000 '
b1000000 .
b1000000 0#
b1000000 <#
b1000000 +
b1000000 2#
b1000000 4#
1$
#280
0$
#290
b1000000 L
b1000000 4"
b1000000 R"
b1000000 u"
b1000100 0
b1000100 %#
b1000100 '#
b1000100 .#
b1000100 '
b1000100 .
b1000100 0#
b1000100 <#
b1000100 +
b1000100 2#
b1000100 4#
b1000000 -
b1000000 o"
b1000000 ##
b1000000 )#
b111100 =
b111100 ^
b111100 '"
b111100 T"
1$
#300
0$
#310
b1000100 L
b1000100 4"
b1000100 R"
b1000100 u"
b1000000 =
b1000000 ^
b1000000 '"
b1000000 T"
b1000100 -
b1000100 o"
b1000100 ##
b1000100 )#
b1001000 0
b1001000 %#
b1001000 '#
b1001000 .#
b1001000 '
b1001000 .
b1001000 0#
b1001000 <#
b1001000 +
b1001000 2#
b1001000 4#
1$
#320
0$
#330
b1001000 L
b1001000 4"
b1001000 R"
b1001000 u"
b1001100 0
b1001100 %#
b1001100 '#
b1001100 .#
b1001100 '
b1001100 .
b1001100 0#
b1001100 <#
b1001100 +
b1001100 2#
b1001100 4#
b1001000 -
b1001000 o"
b1001000 ##
b1001000 )#
b1000100 =
b1000100 ^
b1000100 '"
b1000100 T"
1$
#340
0$
#350
b1001100 L
b1001100 4"
b1001100 R"
b1001100 u"
b1001000 =
b1001000 ^
b1001000 '"
b1001000 T"
b1001100 -
b1001100 o"
b1001100 ##
b1001100 )#
b1010000 0
b1010000 %#
b1010000 '#
b1010000 .#
b1010000 '
b1010000 .
b1010000 0#
b1010000 <#
b1010000 +
b1010000 2#
b1010000 4#
1$
#360
0$
