tb/generated/tb.vcd
$date
	Thu Feb 22 12:54:42 2024
$end
$version
	Icarus Verilog
$end
$timescale
	1ns
$end
$scope module tb $end
$var wire 1 ! x3 $end
$var wire 1 " x27 $end
$var wire 1 # x26 $end
$var reg 1 $ clk $end
$var reg 1 % rest $end
$scope module u_cpu_top $end
$var wire 1 $ clk $end
$var wire 1 % rest $end
$var wire 32 & rom2if_ins_o [31:0] $end
$var wire 32 ' if2rom_ins_o [31:0] $end
$scope module u_cpu_core $end
$var wire 1 $ clk $end
$var wire 1 % rest $end
$var wire 32 ( rom2if_ins_i [31:0] $end
$var wire 32 ) regs2id_rs2_data_o [31:0] $end
$var wire 32 * regs2id_rs1_data_o [31:0] $end
$var wire 32 + pc2if_addr_o [31:0] $end
$var wire 32 , ifid2id_ins_o [31:0] $end
$var wire 32 - ifid2id_addr_o [31:0] $end
$var wire 32 . if2rom_ins_o [31:0] $end
$var wire 32 / if2ifid_ins_o [31:0] $end
$var wire 32 0 if2ifid_addr_o [31:0] $end
$var wire 32 1 idex2ex_source2_o [31:0] $end
$var wire 32 2 idex2ex_source1_o [31:0] $end
$var wire 5 3 idex2ex_rs2_o [4:0] $end
$var wire 5 4 idex2ex_rs1_o [4:0] $end
$var wire 5 5 idex2ex_rd_o [4:0] $end
$var wire 5 6 idex2ex_rd_addr_o [4:0] $end
$var wire 7 7 idex2ex_opcode_o [6:0] $end
$var wire 32 8 idex2ex_imm_uj_o [31:0] $end
$var wire 32 9 idex2ex_imm_sb_o [31:0] $end
$var wire 32 : idex2ex_imm_i_o [31:0] $end
$var wire 32 ; idex2ex_id_ins_o [31:0] $end
$var wire 3 < idex2ex_funct3_o [2:0] $end
$var wire 32 = idex2ex_addr_o [31:0] $end
$var wire 5 > id2regs_rs2_addr_o [4:0] $end
$var wire 5 ? id2regs_rs1_addr_o [4:0] $end
$var wire 32 @ id2idex_source2_o [31:0] $end
$var wire 32 A id2idex_source1_o [31:0] $end
$var wire 5 B id2idex_rs2_o [4:0] $end
$var wire 5 C id2idex_rs1_o [4:0] $end
$var wire 5 D id2idex_rd_o [4:0] $end
$var wire 5 E id2idex_rd_addr_o [4:0] $end
$var wire 7 F id2idex_opcode_o [6:0] $end
$var wire 32 G id2idex_ins_o [31:0] $end
$var wire 32 H id2idex_imm_uj_o [31:0] $end
$var wire 32 I id2idex_imm_sb_o [31:0] $end
$var wire 32 J id2idex_imm_i_o [31:0] $end
$var wire 3 K id2idex_funct3_o [2:0] $end
$var wire 32 L id2idex_addr_o [31:0] $end
$var wire 1 M id2cu_wb_en_o $end
$var wire 1 N ex2regs_wb_en_o $end
$var wire 32 O ex2regs_rd_data_o [31:0] $end
$var wire 5 P ex2regs_rd_addr_o [4:0] $end
$var wire 32 Q ex2pc_jump_addr_o [31:0] $end
$var wire 1 R ex2cu_jump_en_o $end
$var wire 1 S cu2pc_jump_en_o $end
$var wire 1 T cu2ex_wb_en_o $end
$var wire 1 U cu2_refresh_flag_o $end
$scope module u_CU $end
$var wire 1 $ clk $end
$var wire 1 % rest $end
$var wire 1 M id2cu_wb_en_i $end
$var wire 1 R ex2cu_jump_en_i $end
$var reg 1 U cu2_refresh_flag_o $end
$var reg 1 T cu2ex_wb_en_o $end
$var reg 1 S cu2pc_jump_en_o $end
$upscope $end
$scope module u_EXU $end
$var wire 1 T cu2ex_wb_en_i $end
$var wire 32 V idex2ex_source2_i [31:0] $end
$var wire 32 W idex2ex_source1_i [31:0] $end
$var wire 5 X idex2ex_rs2_i [4:0] $end
$var wire 5 Y idex2ex_rs1_i [4:0] $end
$var wire 5 Z idex2ex_rd_i [4:0] $end
$var wire 5 [ idex2ex_rd_addr_i [4:0] $end
$var wire 7 \ idex2ex_opcode_i [6:0] $end
$var wire 32 ] idex2ex_imm_uj_i [31:0] $end
$var wire 32 ^ idex2ex_imm_sb_i [31:0] $end
$var wire 32 _ idex2ex_imm_i_i [31:0] $end
$var wire 32 ` idex2ex_id_ins_i [31:0] $end
$var wire 32 a idex2ex_id_addr_i [31:0] $end
$var wire 3 b idex2ex_funct3_i [2:0] $end
$var wire 32 c ALU_xor [31:0] $end
$var wire 32 d ALU_sub [31:0] $end
$var wire 32 e ALU_stlu [31:0] $end
$var wire 32 f ALU_stl [31:0] $end
$var wire 32 g ALU_srl [31:0] $end
$var wire 32 h ALU_sll [31:0] $end
$var wire 32 i ALU_or [31:0] $end
$var wire 1 j ALU_bne $end
$var wire 1 k ALU_bltu $end
$var wire 1 l ALU_blt $end
$var wire 1 m ALU_bgeu $end
$var wire 1 n ALU_bge $end
$var wire 1 o ALU_beq $end
$var wire 32 p ALU_and [31:0] $end
$var wire 32 q ALU_add [31:0] $end
$var reg 1 R ex2cu_jump_en_o $end
$var reg 32 r ex2pc_jump_addr_o [31:0] $end
$var reg 5 s ex2regs_rd_addr_o [4:0] $end
$var reg 32 t ex2regs_rd_data_o [31:0] $end
$var reg 1 N ex2regs_wb_en_o $end
$scope module u_ALU $end
$var wire 32 u ALU_and [31:0] $end
$var wire 32 v ALU_or [31:0] $end
$var wire 32 w ALU_xor [31:0] $end
$var wire 32 x ALU_sub [31:0] $end
$var wire 32 y ALU_stlu [31:0] $end
$var wire 32 z ALU_stl [31:0] $end
$var wire 32 { ALU_srl [31:0] $end
$var wire 32 | ALU_source2 [31:0] $end
$var wire 32 } ALU_source1 [31:0] $end
$var wire 32 ~ ALU_sll [31:0] $end
$var wire 1 j ALU_bne $end
$var wire 1 k ALU_bltu $end
$var wire 1 l ALU_blt $end
$var wire 1 m ALU_bgeu $end
$var wire 1 n ALU_bge $end
$var wire 1 o ALU_beq $end
$var wire 32 !" ALU_add [31:0] $end
$upscope $end
$upscope $end
$scope module u_IDEXU $end
$var wire 1 $ clk $end
$var wire 1 U cu2_refresh_flag_i $end
$var wire 1 % rest $end
$var wire 1 "" refresh_flag $end
$var wire 32 #" idex2ex_source2_o [31:0] $end
$var wire 32 $" idex2ex_source1_o [31:0] $end
$var wire 5 %" idex2ex_rs2_o [4:0] $end
$var wire 5 &" idex2ex_rs1_o [4:0] $end
$var wire 5 '" idex2ex_rd_o [4:0] $end
$var wire 5 (" idex2ex_rd_addr_o [4:0] $end
$var wire 7 )" idex2ex_opcode_o [6:0] $end
$var wire 32 *" idex2ex_imm_uj_o [31:0] $end
$var wire 32 +" idex2ex_imm_sb_o [31:0] $end
$var wire 32 ," idex2ex_imm_i_o [31:0] $end
$var wire 32 -" idex2ex_id_ins_o [31:0] $end
$var wire 3 ." idex2ex_funct3_o [2:0] $end
$var wire 32 /" idex2ex_addr_o [31:0] $end
$var wire 32 0" id2idex_source2_i [31:0] $end
$var wire 32 1" id2idex_source1_i [31:0] $end
$var wire 5 2" id2idex_rs2_i [4:0] $end
$var wire 5 3" id2idex_rs1_i [4:0] $end
$var wire 5 4" id2idex_rd_i [4:0] $end
$var wire 5 5" id2idex_rd_addr_i [4:0] $end
$var wire 7 6" id2idex_opcode_i [6:0] $end
$var wire 32 7" id2idex_ins_i [31:0] $end
$var wire 32 8" id2idex_imm_uj_i [31:0] $end
$var wire 32 9" id2idex_imm_sb_i [31:0] $end
$var wire 32 :" id2idex_imm_i_i [31:0] $end
$var wire 3 ;" id2idex_funct3_i [2:0] $end
$var wire 32 <" id2idex_addr_i [31:0] $end
$scope module u_DFF_1 $end
$var wire 1 $ clk $end
$var wire 32 =" default_rest [31:0] $end
$var wire 1 "" dff_refresh_flag_i $end
$var wire 1 % rest $end
$var wire 32 >" D [31:0] $end
$var parameter 32 ?" WD $end
$var reg 32 @" Q [31:0] $end
$upscope $end
$scope module u_DFF_10 $end
$var wire 1 $ clk $end
$var wire 3 A" default_rest [2:0] $end
$var wire 1 "" dff_refresh_flag_i $end
$var wire 1 % rest $end
$var wire 3 B" D [2:0] $end
$var parameter 32 C" WD $end
$var reg 3 D" Q [2:0] $end
$upscope $end
$scope module u_DFF_11 $end
$var wire 1 $ clk $end
$var wire 32 E" default_rest [31:0] $end
$var wire 1 "" dff_refresh_flag_i $end
$var wire 1 % rest $end
$var wire 32 F" D [31:0] $end
$var parameter 32 G" WD $end
$var reg 32 H" Q [31:0] $end
$upscope $end
$scope module u_DFF_12 $end
$var wire 1 $ clk $end
$var wire 32 I" default_rest [31:0] $end
$var wire 1 "" dff_refresh_flag_i $end
$var wire 1 % rest $end
$var wire 32 J" D [31:0] $end
$var parameter 32 K" WD $end
$var reg 32 L" Q [31:0] $end
$upscope $end
$scope module u_DFF_13 $end
$var wire 1 $ clk $end
$var wire 32 M" default_rest [31:0] $end
$var wire 1 "" dff_refresh_flag_i $end
$var wire 1 % rest $end
$var wire 32 N" D [31:0] $end
$var parameter 32 O" WD $end
$var reg 32 P" Q [31:0] $end
$upscope $end
$scope module u_DFF_2 $end
$var wire 1 $ clk $end
$var wire 32 Q" default_rest [31:0] $end
$var wire 1 "" dff_refresh_flag_i $end
$var wire 1 % rest $end
$var wire 32 R" D [31:0] $end
$var parameter 32 S" WD $end
$var reg 32 T" Q [31:0] $end
$upscope $end
$scope module u_DFF_3 $end
$var wire 1 $ clk $end
$var wire 32 U" default_rest [31:0] $end
$var wire 1 "" dff_refresh_flag_i $end
$var wire 1 % rest $end
$var wire 32 V" D [31:0] $end
$var parameter 32 W" WD $end
$var reg 32 X" Q [31:0] $end
$upscope $end
$scope module u_DFF_4 $end
$var wire 1 $ clk $end
$var wire 32 Y" default_rest [31:0] $end
$var wire 1 "" dff_refresh_flag_i $end
$var wire 1 % rest $end
$var wire 32 Z" D [31:0] $end
$var parameter 32 [" WD $end
$var reg 32 \" Q [31:0] $end
$upscope $end
$scope module u_DFF_5 $end
$var wire 1 $ clk $end
$var wire 5 ]" default_rest [4:0] $end
$var wire 1 "" dff_refresh_flag_i $end
$var wire 1 % rest $end
$var wire 5 ^" D [4:0] $end
$var parameter 32 _" WD $end
$var reg 5 `" Q [4:0] $end
$upscope $end
$scope module u_DFF_6 $end
$var wire 1 $ clk $end
$var wire 7 a" default_rest [6:0] $end
$var wire 1 "" dff_refresh_flag_i $end
$var wire 1 % rest $end
$var wire 7 b" D [6:0] $end
$var parameter 32 c" WD $end
$var reg 7 d" Q [6:0] $end
$upscope $end
$scope module u_DFF_7 $end
$var wire 1 $ clk $end
$var wire 5 e" default_rest [4:0] $end
$var wire 1 "" dff_refresh_flag_i $end
$var wire 1 % rest $end
$var wire 5 f" D [4:0] $end
$var parameter 32 g" WD $end
$var reg 5 h" Q [4:0] $end
$upscope $end
$scope module u_DFF_8 $end
$var wire 1 $ clk $end
$var wire 5 i" default_rest [4:0] $end
$var wire 1 "" dff_refresh_flag_i $end
$var wire 1 % rest $end
$var wire 5 j" D [4:0] $end
$var parameter 32 k" WD $end
$var reg 5 l" Q [4:0] $end
$upscope $end
$scope module u_DFF_9 $end
$var wire 1 $ clk $end
$var wire 5 m" default_rest [4:0] $end
$var wire 1 "" dff_refresh_flag_i $end
$var wire 1 % rest $end
$var wire 5 n" D [4:0] $end
$var parameter 32 o" WD $end
$var reg 5 p" Q [4:0] $end
$upscope $end
$upscope $end
$scope module u_IDU $end
$var wire 32 q" regs2id_rs2_data_i [31:0] $end
$var wire 32 r" regs2id_rs1_data_i [31:0] $end
$var wire 21 s" imm_uj [20:0] $end
$var wire 13 t" imm_sb [12:0] $end
$var wire 12 u" imm_i [11:0] $end
$var wire 32 v" ifid2id_ins_i [31:0] $end
$var wire 32 w" ifid2id_addr_i [31:0] $end
$var wire 5 x" id2idex_rs2_o [4:0] $end
$var wire 5 y" id2idex_rs1_o [4:0] $end
$var wire 5 z" id2idex_rd_o [4:0] $end
$var wire 7 {" id2idex_opcode_o [6:0] $end
$var wire 3 |" id2idex_funct3_o [2:0] $end
$var reg 1 M id2cu_wb_en_o $end
$var reg 32 }" id2idex_addr_o [31:0] $end
$var reg 32 ~" id2idex_imm_i_o [31:0] $end
$var reg 32 !# id2idex_imm_sb_o [31:0] $end
$var reg 32 "# id2idex_imm_uj_o [31:0] $end
$var reg 32 ## id2idex_ins_o [31:0] $end
$var reg 5 $# id2idex_rd_addr_o [4:0] $end
$var reg 32 %# id2idex_source1_o [31:0] $end
$var reg 32 &# id2idex_source2_o [31:0] $end
$var reg 5 '# id2regs_rs1_addr_o [4:0] $end
$var reg 5 (# id2regs_rs2_addr_o [4:0] $end
$upscope $end
$scope module u_IFIDU $end
$var wire 1 $ clk $end
$var wire 1 U cu2_refresh_flag_i $end
$var wire 1 % rest $end
$var wire 1 )# refresh_flag $end
$var wire 32 *# ifid2id_ins_o [31:0] $end
$var wire 32 +# ifid2id_addr_o [31:0] $end
$var wire 32 ,# if2ifid_ins_i [31:0] $end
$var wire 32 -# if2ifid_addr_i [31:0] $end
$scope module inst_1 $end
$var wire 1 $ clk $end
$var wire 32 .# default_rest [31:0] $end
$var wire 1 )# dff_refresh_flag_i $end
$var wire 1 % rest $end
$var wire 32 /# D [31:0] $end
$var parameter 32 0# WD $end
$var reg 32 1# Q [31:0] $end
$upscope $end
$scope module inst_2 $end
$var wire 1 $ clk $end
$var wire 32 2# default_rest [31:0] $end
$var wire 1 )# dff_refresh_flag_i $end
$var wire 1 % rest $end
$var wire 32 3# D [31:0] $end
$var parameter 32 4# WD $end
$var reg 32 5# Q [31:0] $end
$upscope $end
$upscope $end
$scope module u_IFU $end
$var wire 32 6# if2ifid_addr_o [31:0] $end
$var wire 32 7# if2ifid_ins_o [31:0] $end
$var wire 32 8# if2rom_ins_o [31:0] $end
$var wire 32 9# rom2if_ins_i [31:0] $end
$var wire 32 :# pc2if_addr_i [31:0] $end
$upscope $end
$scope module u_pc_reg $end
$var wire 1 $ clk $end
$var wire 1 S cu2pc_jump_en_i $end
$var wire 32 ;# ex2pc_jump_addr_i [31:0] $end
$var wire 1 % rest $end
$var reg 32 <# pc2if_addr_o [31:0] $end
$upscope $end
$scope module u_regs $end
$var wire 1 $ clk $end
$var wire 5 =# ex2regs_rd_addr_i [4:0] $end
$var wire 32 ># ex2regs_rd_data_i [31:0] $end
$var wire 1 N ex2regs_wb_en_i $end
$var wire 5 ?# id2regs_rs1_addr_i [4:0] $end
$var wire 5 @# id2regs_rs2_addr_i [4:0] $end
$var wire 1 % rest $end
$var reg 32 A# regs2id_rs1_data_o [31:0] $end
$var reg 32 B# regs2id_rs2_data_o [31:0] $end
$var integer 32 C# i [31:0] $end
$upscope $end
$upscope $end
$scope module u_ins_rom $end
$var wire 32 D# if2rom_ins_i [31:0] $end
$var wire 32 E# rom2if_ins_o [31:0] $end
$upscope $end
$upscope $end
$upscope $end
$enddefinitions $end
$comment Show the parameter values. $end
$dumpall
b100000 4#
b100000 0#
b101 o"
b101 k"
b101 g"
b111 c"
b101 _"
b100000 ["
b100000 W"
b100000 S"
b100000 O"
b100000 K"
b100000 G"
b11 C"
b100000 ?"
$end
#0
$dumpvars
bx E#
bx D#
bx C#
b0 B#
b0 A#
b0 @#
b0 ?#
b0 >#
b0 =#
bx <#
b0 ;#
bx :#
bx 9#
bx 8#
bx 7#
bx 6#
bx 5#
bx 3#
b0 2#
bx 1#
bx /#
b0 .#
bx -#
bx ,#
bx +#
bx *#
0)#
b0 (#
b0 '#
b0 &#
b0 %#
b0 $#
bx ##
bx "#
bx !#
bx ~"
bx }"
bx |"
bx {"
bx z"
bx y"
bx x"
bx w"
bx v"
bx u"
bx0 t"
bx0 s"
b0 r"
b0 q"
bx p"
bx n"
b0 m"
bx l"
bx j"
b0 i"
bx h"
bx f"
b0 e"
bx d"
bx b"
b0 a"
bx `"
b0 ^"
b0 ]"
bx \"
bx Z"
b0 Y"
bx X"
bx V"
b0 U"
bx T"
b0 R"
b0 Q"
bx P"
bx N"
b0 M"
bx L"
bx J"
b0 I"
bx H"
bx F"
b0 E"
bx D"
bx B"
b0 A"
bx @"
b0 >"
b0 ="
bx <"
bx ;"
bx :"
bx 9"
bx 8"
bx 7"
bx 6"
b0 5"
bx 4"
bx 3"
bx 2"
b0 1"
b0 0"
bx /"
bx ."
bx -"
bx ,"
bx +"
bx *"
bx )"
bx ("
bx '"
bx &"
bx %"
bx $"
bx #"
0""
bx !"
bx ~
bx }
bx |
bx {
b0x z
b0x y
bx x
bx w
bx v
bx u
b0 t
b0 s
b0 r
bx q
bx p
xo
xn
xm
xl
xk
xj
bx i
bx h
bx g
b0x f
b0x e
bx d
bx c
bx b
bx a
bx `
bx _
bx ^
bx ]
bx \
bx [
bx Z
bx Y
bx X
bx W
bx V
0U
xT
0S
0R
b0 Q
b0 P
b0 O
xN
0M
bx L
bx K
bx J
bx I
bx H
bx G
bx F
b0 E
bx D
bx C
bx B
b0 A
b0 @
b0 ?
b0 >
bx =
bx <
bx ;
bx :
bx 9
bx 8
bx 7
bx 6
bx 5
bx 4
bx 3
bx 2
bx 1
bx 0
bx /
bx .
bx -
bx ,
bx +
b0 *
b0 )
bx (
bx '
bx &
0%
0$
x#
x"
x!
$end
#10
b101100000000000110010011 /
b101100000000000110010011 ,#
b101100000000000110010011 3#
b101100000000000110010011 7#
b101100000000000110010011 &
b101100000000000110010011 (
b101100000000000110010011 9#
b101100000000000110010011 E#
b0 s"
b0 t"
b0 u"
b0 B
b0 2"
b0 n"
b0 x"
b0 C
b0 3"
b0 j"
b0 y"
b0 K
b0 ;"
b0 B"
b0 |"
b0 D
b0 4"
b0 f"
b0 z"
b0 F
b0 6"
b0 b"
b0 {"
b0 L
b0 <"
b0 Z"
b0 }"
b0 G
b0 7"
b0 V"
b0 ##
1m
0k
1n
0l
0j
1o
b0 e
b0 y
b0 f
b0 z
b0 g
b0 {
b0 h
b0 ~
b0 c
b0 w
b0 i
b0 v
b0 p
b0 u
0"
0#
0!
0N
b0 0
b0 -#
b0 /#
b0 6#
b0 '
b0 .
b0 8#
b0 D#
b0 +
b0 :#
b0 <#
b0 -
b0 w"
b0 +#
b0 1#
b0 ,
b0 v"
b0 *#
b0 5#
b0 d
b0 x
b0 q
b0 !"
b0 2
b0 W
b0 }
b0 $"
b0 @"
b0 1
b0 V
b0 |
b0 #"
b0 T"
b0 ;
b0 `
b0 -"
b0 X"
b0 =
b0 a
b0 /"
b0 \"
b0 6
b0 [
b0 ("
b0 `"
b0 7
b0 \
b0 )"
b0 d"
b0 5
b0 Z
b0 '"
b0 h"
b0 4
b0 Y
b0 &"
b0 l"
b0 3
b0 X
b0 %"
b0 p"
b0 <
b0 b
b0 ."
b0 D"
b0 :
b0 _
b0 ,"
b0 H"
b0 9
b0 ^
b0 +"
b0 L"
b0 8
b0 ]
b0 *"
b0 P"
0T
1%
b100000 C#
1$
#20
0$
#30
1M
b11 E
b11 5"
b11 ^"
b11 $#
b1011 @
b1011 0"
b1011 R"
b1011 &#
b100000001010 s"
b100000000010 t"
b1011 u"
b1011 B
b1011 2"
b1011 n"
b1011 x"
b11 D
b11 4"
b11 f"
b11 z"
b10011 F
b10011 6"
b10011 b"
b10011 {"
b101100000000000110010011 G
b101100000000000110010011 7"
b101100000000000110010011 V"
b101100000000000110010011 ##
b101100000000001000010011 /
b101100000000001000010011 ,#
b101100000000001000010011 3#
b101100000000001000010011 7#
b101100000000001000010011 &
b101100000000001000010011 (
b101100000000001000010011 9#
b101100000000001000010011 E#
bx 8
bx ]
bx *"
bx P"
bx 9
bx ^
bx +"
bx L"
bx :
bx _
bx ,"
bx H"
b101100000000000110010011 ,
b101100000000000110010011 v"
b101100000000000110010011 *#
b101100000000000110010011 5#
b100 0
b100 -#
b100 /#
b100 6#
b100 '
b100 .
b100 8#
b100 D#
b100 +
b100 :#
b100 <#
1$
#40
0$
#50
b100 E
b100 5"
b100 ^"
b100 $#
b1100100000100001100011 /
b1100100000100001100011 ,#
b1100100000100001100011 3#
b1100100000100001100011 7#
b1100100000100001100011 &
b1100100000100001100011 (
b1100100000100001100011 9#
b1100100000100001100011 E#
b100 t"
b100 D
b100 4"
b100 f"
b100 z"
1M
b100 L
b100 <"
b100 Z"
b100 }"
b101100000000001000010011 G
b101100000000001000010011 7"
b101100000000001000010011 V"
b101100000000001000010011 ##
0m
1k
0n
1l
1j
0o
b1 e
b1 y
b1 f
b1 z
b1011 c
b1011 w
b1011 i
b1011 v
b1011 O
b1011 t
b1011 >#
b11 P
b11 s
b11 =#
1N
b1000 0
b1000 -#
b1000 /#
b1000 6#
b1000 '
b1000 .
b1000 8#
b1000 D#
b1000 +
b1000 :#
b1000 <#
b100 -
b100 w"
b100 +#
b100 1#
b101100000000001000010011 ,
b101100000000001000010011 v"
b101100000000001000010011 *#
b101100000000001000010011 5#
b11111111111111111111111111110101 d
b11111111111111111111111111110101 x
b1011 q
b1011 !"
b1011 1
b1011 V
b1011 |
b1011 #"
b1011 T"
b101100000000000110010011 ;
b101100000000000110010011 `
b101100000000000110010011 -"
b101100000000000110010011 X"
b11 6
b11 [
b11 ("
b11 `"
b10011 7
b10011 \
b10011 )"
b10011 d"
b11 5
b11 Z
b11 '"
b11 h"
b1011 3
b1011 X
b1011 %"
b1011 p"
1T
1$
#60
0$
#70
b1011 A
b1011 1"
b1011 >"
b1011 %#
b1011 )
b1011 q"
b1011 B#
b1011 *
b1011 r"
b1011 A#
b0 E
b0 5"
b0 ^"
b0 $#
b10000 I
b10000 9"
b10000 J"
b10000 !#
b1011 @
b1011 0"
b1011 R"
b1011 &#
b11 >
b11 (#
b11 @#
b100 ?
b100 '#
b100 ?#
1!
b100 P
b100 s
b100 =#
b100000100000000010 s"
b10000 t"
b11 u"
b11 B
b11 2"
b11 n"
b11 x"
b100 C
b100 3"
b100 j"
b100 y"
b10000 D
b10000 4"
b10000 f"
b10000 z"
b1100011 F
b1100011 6"
b1100011 b"
b1100011 {"
0M
b1000 L
b1000 <"
b1000 Z"
b1000 }"
b1100100000100001100011 G
b1100100000100001100011 7"
b1100100000100001100011 V"
b1100100000100001100011 ##
bx /
bx ,#
bx 3#
bx 7#
bx &
bx (
bx 9#
bx E#
b100 5
b100 Z
b100 '"
b100 h"
b100 6
b100 [
b100 ("
b100 `"
b100 =
b100 a
b100 /"
b100 \"
b101100000000001000010011 ;
b101100000000001000010011 `
b101100000000001000010011 -"
b101100000000001000010011 X"
b1100100000100001100011 ,
b1100100000100001100011 v"
b1100100000100001100011 *#
b1100100000100001100011 5#
b1000 -
b1000 w"
b1000 +#
b1000 1#
b1100 0
b1100 -#
b1100 /#
b1100 6#
b1100 '
b1100 .
b1100 8#
b1100 D#
b1100 +
b1100 :#
b1100 <#
1$
#80
0$
#90
1""
1)#
b0 )
b0 q"
b0 B#
b0 *
b0 r"
b0 A#
1U
1S
b0 @
b0 0"
b0 R"
b0 &#
b0 A
b0 1"
b0 >"
b0 %#
b0 >
b0 (#
b0 @#
b0 ?
b0 '#
b0 ?#
b11000 Q
b11000 r
b11000 ;#
1R
bx0 s"
bx0 t"
bx u"
bx B
bx 2"
bx n"
bx x"
bx C
bx 3"
bx j"
bx y"
bx K
bx ;"
bx B"
bx |"
bx D
bx 4"
bx f"
bx z"
bx F
bx 6"
bx b"
bx {"
b1100 L
b1100 <"
b1100 Z"
b1100 }"
bx G
bx 7"
bx V"
bx ##
1m
0k
1n
0l
0j
1o
b0 e
b0 y
b0 f
b0 z
b0 c
b0 w
b1011 p
b1011 u
b0 O
b0 t
b0 >#
b0 P
b0 s
b0 =#
0N
b10000 0
b10000 -#
b10000 /#
b10000 6#
b10000 '
b10000 .
b10000 8#
b10000 D#
b10000 +
b10000 :#
b10000 <#
b1100 -
b1100 w"
b1100 +#
b1100 1#
bx ,
bx v"
bx *#
bx 5#
b101100000000000 h
b101100000000000 ~
b0 d
b0 x
b10110 q
b10110 !"
b1011 2
b1011 W
b1011 }
b1011 $"
b1011 @"
b1100100000100001100011 ;
b1100100000100001100011 `
b1100100000100001100011 -"
b1100100000100001100011 X"
b1000 =
b1000 a
b1000 /"
b1000 \"
b0 6
b0 [
b0 ("
b0 `"
b1100011 7
b1100011 \
b1100011 )"
b1100011 d"
b10000 5
b10000 Z
b10000 '"
b10000 h"
b100 4
b100 Y
b100 &"
b100 l"
b11 3
b11 X
b11 %"
b11 p"
b10000 9
b10000 ^
b10000 +"
b10000 L"
0T
1$
#100
0$
#110
0""
0)#
0S
0U
b0 Q
b0 r
b0 ;#
0R
b0 i
b0 v
b0 p
b0 u
b0 s"
b0 t"
b0 u"
b0 B
b0 2"
b0 n"
b0 x"
b0 C
b0 3"
b0 j"
b0 y"
b0 K
b0 ;"
b0 B"
b0 |"
b0 D
b0 4"
b0 f"
b0 z"
b0 F
b0 6"
b0 b"
b0 {"
b0 L
b0 <"
b0 Z"
b0 }"
b0 G
b0 7"
b0 V"
b0 ##
b0 8
b0 ]
b0 *"
b0 P"
b0 9
b0 ^
b0 +"
b0 L"
b0 :
b0 _
b0 ,"
b0 H"
b0 3
b0 X
b0 %"
b0 p"
b0 4
b0 Y
b0 &"
b0 l"
b0 5
b0 Z
b0 '"
b0 h"
b0 7
b0 \
b0 )"
b0 d"
b0 =
b0 a
b0 /"
b0 \"
b0 ;
b0 `
b0 -"
b0 X"
b0 1
b0 V
b0 |
b0 #"
b0 T"
b0 h
b0 ~
b0 d
b0 x
b0 q
b0 !"
b0 2
b0 W
b0 }
b0 $"
b0 @"
b0 ,
b0 v"
b0 *#
b0 5#
b0 -
b0 w"
b0 +#
b0 1#
b11000 0
b11000 -#
b11000 /#
b11000 6#
b11000 '
b11000 .
b11000 8#
b11000 D#
b11000 +
b11000 :#
b11000 <#
1$
#120
0$
#130
bx0 s"
bx0 t"
bx u"
bx B
bx 2"
bx n"
bx x"
bx C
bx 3"
bx j"
bx y"
bx K
bx ;"
bx B"
bx |"
bx D
bx 4"
bx f"
bx z"
bx F
bx 6"
bx b"
bx {"
b11000 L
b11000 <"
b11000 Z"
b11000 }"
bx G
bx 7"
bx V"
bx ##
b11100 0
b11100 -#
b11100 /#
b11100 6#
b11100 '
b11100 .
b11100 8#
b11100 D#
b11100 +
b11100 :#
b11100 <#
b11000 -
b11000 w"
b11000 +#
b11000 1#
bx ,
bx v"
bx *#
bx 5#
bx :
bx _
bx ,"
bx H"
b10000 9
b10000 ^
b10000 +"
b10000 L"
bx 8
bx ]
bx *"
bx P"
1$
#140
0$
#150
b11100 L
b11100 <"
b11100 Z"
b11100 }"
bx <
bx b
bx ."
bx D"
bx 3
bx X
bx %"
bx p"
bx 4
bx Y
bx &"
bx l"
bx 5
bx Z
bx '"
bx h"
bx 7
bx \
bx )"
bx d"
b11000 =
b11000 a
b11000 /"
b11000 \"
bx ;
bx `
bx -"
bx X"
b11100 -
b11100 w"
b11100 +#
b11100 1#
b100000 0
b100000 -#
b100000 /#
b100000 6#
b100000 '
b100000 .
b100000 8#
b100000 D#
b100000 +
b100000 :#
b100000 <#
1$
#160
0$
#170
b100000 L
b100000 <"
b100000 Z"
b100000 }"
b100100 0
b100100 -#
b100100 /#
b100100 6#
b100100 '
b100100 .
b100100 8#
b100100 D#
b100100 +
b100100 :#
b100100 <#
b100000 -
b100000 w"
b100000 +#
b100000 1#
b11100 =
b11100 a
b11100 /"
b11100 \"
1$
#180
0$
#190
b100100 L
b100100 <"
b100100 Z"
b100100 }"
b100000 =
b100000 a
b100000 /"
b100000 \"
b100100 -
b100100 w"
b100100 +#
b100100 1#
b101000 0
b101000 -#
b101000 /#
b101000 6#
b101000 '
b101000 .
b101000 8#
b101000 D#
b101000 +
b101000 :#
b101000 <#
1$
#200
0$
#210
b101000 L
b101000 <"
b101000 Z"
b101000 }"
b101100 0
b101100 -#
b101100 /#
b101100 6#
b101100 '
b101100 .
b101100 8#
b101100 D#
b101100 +
b101100 :#
b101100 <#
b101000 -
b101000 w"
b101000 +#
b101000 1#
b100100 =
b100100 a
b100100 /"
b100100 \"
1$
#220
0$
#230
b101100 L
b101100 <"
b101100 Z"
b101100 }"
b101000 =
b101000 a
b101000 /"
b101000 \"
b101100 -
b101100 w"
b101100 +#
b101100 1#
b110000 0
b110000 -#
b110000 /#
b110000 6#
b110000 '
b110000 .
b110000 8#
b110000 D#
b110000 +
b110000 :#
b110000 <#
1$
#240
0$
#250
b110000 L
b110000 <"
b110000 Z"
b110000 }"
b110100 0
b110100 -#
b110100 /#
b110100 6#
b110100 '
b110100 .
b110100 8#
b110100 D#
b110100 +
b110100 :#
b110100 <#
b110000 -
b110000 w"
b110000 +#
b110000 1#
b101100 =
b101100 a
b101100 /"
b101100 \"
1$
#260
0$
#270
b110100 L
b110100 <"
b110100 Z"
b110100 }"
b110000 =
b110000 a
b110000 /"
b110000 \"
b110100 -
b110100 w"
b110100 +#
b110100 1#
b111000 0
b111000 -#
b111000 /#
b111000 6#
b111000 '
b111000 .
b111000 8#
b111000 D#
b111000 +
b111000 :#
b111000 <#
1$
#280
0$
#290
b111000 L
b111000 <"
b111000 Z"
b111000 }"
b111100 0
b111100 -#
b111100 /#
b111100 6#
b111100 '
b111100 .
b111100 8#
b111100 D#
b111100 +
b111100 :#
b111100 <#
b111000 -
b111000 w"
b111000 +#
b111000 1#
b110100 =
b110100 a
b110100 /"
b110100 \"
1$
#300
0$
#310
b111100 L
b111100 <"
b111100 Z"
b111100 }"
b111000 =
b111000 a
b111000 /"
b111000 \"
b111100 -
b111100 w"
b111100 +#
b111100 1#
b1000000 0
b1000000 -#
b1000000 /#
b1000000 6#
b1000000 '
b1000000 .
b1000000 8#
b1000000 D#
b1000000 +
b1000000 :#
b1000000 <#
1$
#320
0$
#330
b1000000 L
b1000000 <"
b1000000 Z"
b1000000 }"
b1000100 0
b1000100 -#
b1000100 /#
b1000100 6#
b1000100 '
b1000100 .
b1000100 8#
b1000100 D#
b1000100 +
b1000100 :#
b1000100 <#
b1000000 -
b1000000 w"
b1000000 +#
b1000000 1#
b111100 =
b111100 a
b111100 /"
b111100 \"
1$
#340
0$
